<?xml version="1.0" encoding="UTF-8"?>
<svg xmlns="http://www.w3.org/2000/svg" xmlns:xlink="http://www.w3.org/1999/xlink"
     width="80" height="40" viewBox="0 -40 80 40">
<defs>
</defs>
<rect x="10" y="-20" width="10" height="10" fill="#4483d6" strokewidth="1" stroke="#3a3a3a" />
<text x="15.0" y="-15.0" font-size="8" text-anchor="middle" dy="0.4em">0</text>
<rect x="20" y="-20" width="10" height="10" fill="#ffffff" strokewidth="1" stroke="#3a3a3a" />
<text x="25.0" y="-15.0" font-size="8" text-anchor="middle" dy="0.4em">1</text>
<rect x="30" y="-20" width="10" height="10" fill="#888" strokewidth="1" stroke="#3a3a3a" />
<text x="35.0" y="-15.0" font-size="8" text-anchor="middle" dy="0.4em">5</text>
<rect x="40" y="-20" width="10" height="10" fill="#888" strokewidth="1" stroke="#3a3a3a" />
<text x="45.0" y="-15.0" font-size="8" text-anchor="middle" dy="0.4em">1</text>
<rect x="50" y="-20" width="10" height="10" fill="#f42411" strokewidth="1" stroke="#3a3a3a" />
<text x="55.0" y="-15.0" font-size="8" text-anchor="middle" dy="0.4em">2</text>
<rect x="60" y="-20" width="10" height="10" fill="#f42411" strokewidth="1" stroke="#3a3a3a" />
<text x="65.0" y="-15.0" font-size="8" text-anchor="middle" dy="0.4em">3</text>
<text x="25.0" y="-5.0" font-size="7" text-anchor="middle" dy="0.4em">debut</text>
<text x="35.0" y="-27.5" font-size="7" text-anchor="middle" dy="0.4em">milieu</text>
<text x="45.0" y="-34.0" font-size="7" text-anchor="middle" dy="0.4em">fin</text>
</svg>